bfs_omp_for,1,16000000,8.564000,271471647
bfs_omp_task,1,16000000,8.256000,271471647
bfs_cilk_for,1,16000000,8.336000,271471647
bfs_cilk_spawn,1,16000000,8.445000,271471647
bfs_c++_thread,1,16000000,8.467000,271471647
bfs_c++_async,1,16000000,8.645000,271471647
bfs_omp_for,2,16000000,4.402000,271471647
bfs_omp_task,2,16000000,4.109000,271471647
bfs_cilk_for,2,16000000,4.277000,271471647
bfs_cilk_spawn,2,16000000,4.842000,271471647
bfs_c++_thread,2,16000000,5.096000,271471647
bfs_c++_async,2,16000000,4.740000,271471647
bfs_omp_for,4,16000000,2.943000,271471647
bfs_omp_task,4,16000000,2.587000,271471647
bfs_cilk_for,4,16000000,2.690000,271471647
bfs_cilk_spawn,4,16000000,2.531000,271471647
bfs_c++_thread,4,16000000,2.677000,271471647
bfs_c++_async,4,16000000,2.645000,271471647
bfs_omp_for,8,16000000,2.004000,271471647
bfs_omp_task,8,16000000,1.561000,271471647
bfs_cilk_for,8,16000000,1.614000,271471647
bfs_cilk_spawn,8,16000000,1.691000,271471647
bfs_c++_thread,8,16000000,1.657000,271471647
bfs_c++_async,8,16000000,1.583000,271471647
bfs_omp_for,16,16000000,1.657000,271471647
bfs_omp_task,16,16000000,1.173000,271471647
bfs_cilk_for,16,16000000,1.233000,271471647
bfs_cilk_spawn,16,16000000,1.367000,271471647
bfs_c++_thread,16,16000000,1.186000,271471647
bfs_c++_async,16,16000000,1.195000,271471647
bfs_omp_for,32,16000000,0.922000,271471647
bfs_omp_task,32,16000000,0.907000,271471647
bfs_cilk_for,32,16000000,0.985000,271471647
bfs_cilk_spawn,32,16000000,1.094000,271537890
bfs_c++_thread,32,16000000,0.906000,271471647
bfs_c++_async,32,16000000,0.921000,271471647
bfs_omp_for,1,16000000,8.291000,271471647
bfs_omp_task,1,16000000,8.296000,271471647
bfs_cilk_for,1,16000000,8.592000,271471647
bfs_cilk_spawn,1,16000000,8.521000,271471647
bfs_c++_thread,1,16000000,8.421000,271471647
bfs_c++_async,1,16000000,8.597000,271471647
bfs_omp_for,2,16000000,4.258000,271471647
bfs_omp_task,2,16000000,4.095000,271471647
bfs_cilk_for,2,16000000,4.260000,271471647
bfs_cilk_spawn,2,16000000,4.435000,271471647
bfs_c++_thread,2,16000000,4.846000,271471647
bfs_c++_async,2,16000000,4.993000,271471647
bfs_omp_for,4,16000000,2.652000,271471647
bfs_omp_task,4,16000000,2.515000,271471647
bfs_cilk_for,4,16000000,2.651000,271471647
bfs_cilk_spawn,4,16000000,2.630000,271471647
bfs_c++_thread,4,16000000,2.684000,271471647
bfs_c++_async,4,16000000,2.739000,271471647
bfs_omp_for,8,16000000,2.046000,271471647
bfs_omp_task,8,16000000,1.562000,271471647
bfs_cilk_for,8,16000000,1.699000,271471647
bfs_cilk_spawn,8,16000000,1.862000,271471647
bfs_c++_thread,8,16000000,1.673000,271471647
bfs_c++_async,8,16000000,1.697000,271471647
bfs_omp_for,16,16000000,1.672000,271471647
bfs_omp_task,16,16000000,1.183000,271471647
bfs_cilk_for,16,16000000,1.225000,271471647
bfs_cilk_spawn,16,16000000,1.346000,271471647
bfs_c++_thread,16,16000000,1.226000,271471647
bfs_c++_async,16,16000000,1.216000,271471647
bfs_omp_for,32,16000000,1.333000,271471647
bfs_omp_task,32,16000000,0.927000,271471647
bfs_cilk_for,32,16000000,0.969000,271471647
bfs_cilk_spawn,32,16000000,1.005000,271471647
bfs_c++_thread,32,16000000,0.959000,271471647
bfs_c++_async,32,16000000,0.903000,271471647
bfs_omp_for,1,16000000,8.772000,271471647
bfs_omp_task,1,16000000,8.257000,271471647
bfs_cilk_for,1,16000000,8.550000,271471647
bfs_cilk_spawn,1,16000000,8.558000,271471647
bfs_c++_thread,1,16000000,8.179000,271471647
bfs_c++_async,1,16000000,8.797000,271471647
bfs_omp_for,2,16000000,4.417000,271471647
bfs_omp_task,2,16000000,4.056000,271471647
bfs_cilk_for,2,16000000,4.176000,271471647
bfs_cilk_spawn,2,16000000,4.605000,271471647
bfs_c++_thread,2,16000000,4.830000,271471647
bfs_c++_async,2,16000000,4.591000,271471647
bfs_omp_for,4,16000000,2.711000,271471647
bfs_omp_task,4,16000000,2.634000,271471647
bfs_cilk_for,4,16000000,2.642000,271471647
bfs_cilk_spawn,4,16000000,2.804000,271471647
bfs_c++_thread,4,16000000,2.521000,271471647
bfs_c++_async,4,16000000,2.694000,271471647
bfs_omp_for,8,16000000,1.640000,271471647
bfs_omp_task,8,16000000,1.547000,271471647
bfs_cilk_for,8,16000000,1.654000,271471647
bfs_cilk_spawn,8,16000000,1.856000,271471647
bfs_c++_thread,8,16000000,1.742000,271471647
bfs_c++_async,8,16000000,1.708000,271471647
bfs_omp_for,16,16000000,1.170000,271471647
bfs_omp_task,16,16000000,1.183000,271471647
bfs_cilk_for,16,16000000,1.699000,271471647
bfs_cilk_spawn,16,16000000,1.173000,271671192
bfs_c++_thread,16,16000000,1.177000,271471647
bfs_c++_async,16,16000000,1.189000,271471647
bfs_omp_for,32,16000000,0.956000,271471647
bfs_omp_task,32,16000000,0.868000,271471647
bfs_cilk_for,32,16000000,1.001000,271471647
bfs_cilk_spawn,32,16000000,1.041000,271471647
bfs_c++_thread,32,16000000,0.933000,271471647
bfs_c++_async,32,16000000,0.923000,271471647
bfs_omp_for,1,16000000,8.599000,271471647
bfs_omp_task,1,16000000,8.180000,271471647
bfs_cilk_for,1,16000000,8.754000,271471647
bfs_cilk_spawn,1,16000000,8.471000,271471647
bfs_c++_thread,1,16000000,9.050000,271471647
bfs_c++_async,1,16000000,8.611000,271471647
bfs_omp_for,2,16000000,4.977000,271471647
bfs_omp_task,2,16000000,4.094000,271471647
bfs_cilk_for,2,16000000,4.295000,271471647
bfs_cilk_spawn,2,16000000,4.507000,271471647
bfs_c++_thread,2,16000000,4.843000,271471647
bfs_c++_async,2,16000000,4.802000,271471647
bfs_omp_for,4,16000000,2.696000,271471647
bfs_omp_task,4,16000000,2.619000,271471647
bfs_cilk_for,4,16000000,2.938000,271471647
bfs_cilk_spawn,4,16000000,2.380000,271471647
bfs_c++_thread,4,16000000,2.764000,271471647
bfs_c++_async,4,16000000,2.768000,271471647
bfs_omp_for,8,16000000,2.095000,271471647
bfs_omp_task,8,16000000,1.649000,271471647
bfs_cilk_for,8,16000000,1.711000,271471647
bfs_cilk_spawn,8,16000000,1.885000,271471647
bfs_c++_thread,8,16000000,1.700000,271471647
bfs_c++_async,8,16000000,1.700000,271471647
bfs_omp_for,16,16000000,1.230000,271471647
bfs_omp_task,16,16000000,1.152000,271471647
bfs_cilk_for,16,16000000,1.194000,271471647
bfs_cilk_spawn,16,16000000,1.331000,271471647
bfs_c++_thread,16,16000000,1.156000,271471647
bfs_c++_async,16,16000000,1.155000,271471647
bfs_omp_for,32,16000000,0.919000,271471647
bfs_omp_task,32,16000000,0.856000,271471647
bfs_cilk_for,32,16000000,1.002000,271471647
bfs_cilk_spawn,32,16000000,0.960000,271471647
bfs_c++_thread,32,16000000,0.933000,271471647
bfs_c++_async,32,16000000,0.957000,271471647
bfs_omp_for,1,16000000,8.756000,271471647
bfs_omp_task,1,16000000,8.087000,271471647
bfs_cilk_for,1,16000000,8.597000,271471647
bfs_cilk_spawn,1,16000000,8.426000,271471647
bfs_c++_thread,1,16000000,8.394000,271471647
bfs_c++_async,1,16000000,8.822000,271471647
bfs_omp_for,2,16000000,4.645000,271471647
bfs_omp_task,2,16000000,4.172000,271471647
bfs_cilk_for,2,16000000,4.233000,271471647
bfs_cilk_spawn,2,16000000,4.598000,271471647
bfs_c++_thread,2,16000000,5.001000,271471647
bfs_c++_async,2,16000000,4.767000,271471647
bfs_omp_for,4,16000000,2.772000,271471647
bfs_omp_task,4,16000000,2.612000,271471647
bfs_cilk_for,4,16000000,2.454000,271471647
bfs_cilk_spawn,4,16000000,2.541000,271471647
bfs_c++_thread,4,16000000,2.669000,271471647
bfs_c++_async,4,16000000,2.794000,271471647
bfs_omp_for,8,16000000,1.655000,271471647
bfs_omp_task,8,16000000,1.552000,271471647
bfs_cilk_for,8,16000000,1.656000,271471647
bfs_cilk_spawn,8,16000000,1.645000,271471647
bfs_c++_thread,8,16000000,1.629000,271471647
bfs_c++_async,8,16000000,1.736000,271471647
bfs_omp_for,16,16000000,1.244000,271471647
bfs_omp_task,16,16000000,1.177000,271471647
bfs_cilk_for,16,16000000,1.720000,271471647
bfs_cilk_spawn,16,16000000,1.424000,271471647
bfs_c++_thread,16,16000000,1.156000,271471647
bfs_c++_async,16,16000000,1.174000,271471647
bfs_omp_for,32,16000000,0.932000,271471647
bfs_omp_task,32,16000000,0.899000,271471647
bfs_cilk_for,32,16000000,1.003000,271471647
bfs_cilk_spawn,32,16000000,1.046000,271471647
bfs_c++_thread,32,16000000,0.934000,271471647
bfs_c++_async,32,16000000,0.934000,271471647
bfs_omp_for,1,16000000,8.384000,271471647
bfs_omp_task,1,16000000,8.439000,271471647
bfs_cilk_for,1,16000000,8.402000,271471647
bfs_cilk_spawn,1,16000000,8.647000,271471647
bfs_c++_thread,1,16000000,8.305000,271471647
bfs_c++_async,1,16000000,8.618000,271471647
bfs_omp_for,2,16000000,5.237000,271471647
bfs_omp_task,2,16000000,4.080000,271471647
bfs_cilk_for,2,16000000,4.212000,271471647
bfs_cilk_spawn,2,16000000,4.516000,271471647
bfs_c++_thread,2,16000000,4.899000,271471647
bfs_c++_async,2,16000000,4.877000,271471647
bfs_omp_for,4,16000000,2.978000,271471647
bfs_omp_task,4,16000000,2.579000,271471647
bfs_cilk_for,4,16000000,2.607000,271471647
bfs_cilk_spawn,4,16000000,2.660000,271471647
bfs_c++_thread,4,16000000,2.695000,271471647
bfs_c++_async,4,16000000,2.699000,271471647
bfs_omp_for,8,16000000,1.579000,271471647
bfs_omp_task,8,16000000,1.612000,271471647
bfs_cilk_for,8,16000000,1.657000,271471647
bfs_cilk_spawn,8,16000000,1.725000,271471647
bfs_c++_thread,8,16000000,1.687000,271471647
bfs_c++_async,8,16000000,1.637000,271471647
bfs_omp_for,16,16000000,1.137000,271471647
bfs_omp_task,16,16000000,1.121000,271471647
bfs_cilk_for,16,16000000,1.744000,271471647
bfs_cilk_spawn,16,16000000,1.333000,271471647
bfs_c++_thread,16,16000000,1.169000,271471647
bfs_c++_async,16,16000000,1.166000,271471647
bfs_omp_for,32,16000000,0.937000,271471647
bfs_omp_task,32,16000000,0.887000,271471647
bfs_cilk_for,32,16000000,0.987000,271471647
bfs_cilk_spawn,32,16000000,1.095000,271471647
bfs_c++_thread,32,16000000,0.962000,271471647
bfs_c++_async,32,16000000,0.907000,271471647
bfs_omp_for,1,16000000,8.460000,271471647
bfs_omp_task,1,16000000,8.353000,271471647
bfs_cilk_for,1,16000000,8.342000,271471647
bfs_cilk_spawn,1,16000000,8.556000,271471647
bfs_c++_thread,1,16000000,8.246000,271471647
bfs_c++_async,1,16000000,8.852000,271471647
bfs_omp_for,2,16000000,5.023000,271471647
bfs_omp_task,2,16000000,4.795000,271471647
bfs_cilk_for,2,16000000,4.743000,271471647
bfs_cilk_spawn,2,16000000,4.975000,271471647
bfs_c++_thread,2,16000000,4.271000,271471647
bfs_c++_async,2,16000000,4.488000,271471647
bfs_omp_for,4,16000000,2.995000,271471647
bfs_omp_task,4,16000000,2.541000,271471647
bfs_cilk_for,4,16000000,2.562000,271471647
bfs_cilk_spawn,4,16000000,2.686000,271471647
bfs_c++_thread,4,16000000,2.746000,271471647
bfs_c++_async,4,16000000,2.843000,271471647
bfs_omp_for,8,16000000,2.007000,271471647
bfs_omp_task,8,16000000,1.672000,271471647
bfs_cilk_for,8,16000000,1.603000,271471647
bfs_cilk_spawn,8,16000000,1.554000,271471647
bfs_c++_thread,8,16000000,1.671000,271471647
bfs_c++_async,8,16000000,1.733000,271471647
bfs_omp_for,16,16000000,1.202000,271471647
bfs_omp_task,16,16000000,1.157000,271471647
bfs_cilk_for,16,16000000,1.195000,271471647
bfs_cilk_spawn,16,16000000,1.260000,271471647
bfs_c++_thread,16,16000000,1.144000,271471647
bfs_c++_async,16,16000000,1.214000,271471647
bfs_omp_for,32,16000000,1.324000,271471647
bfs_omp_task,32,16000000,0.882000,271471647
bfs_cilk_for,32,16000000,1.530000,271471647
bfs_cilk_spawn,32,16000000,1.130000,271471647
bfs_c++_thread,32,16000000,0.943000,271471647
bfs_c++_async,32,16000000,0.944000,271471647
bfs_omp_for,1,16000000,8.710000,271471647
bfs_omp_task,1,16000000,8.156000,271471647
bfs_cilk_for,1,16000000,9.014000,271471647
bfs_cilk_spawn,1,16000000,8.444000,271471647
bfs_c++_thread,1,16000000,8.112000,271471647
bfs_c++_async,1,16000000,8.752000,271471647
bfs_omp_for,2,16000000,4.179000,271471647
bfs_omp_task,2,16000000,4.071000,271471647
bfs_cilk_for,2,16000000,4.298000,271471647
bfs_cilk_spawn,2,16000000,4.960000,271471647
bfs_c++_thread,2,16000000,4.753000,271471647
bfs_c++_async,2,16000000,4.729000,271471647
bfs_omp_for,4,16000000,2.655000,271471647
bfs_omp_task,4,16000000,2.670000,271471647
bfs_cilk_for,4,16000000,2.660000,271471647
bfs_cilk_spawn,4,16000000,2.499000,271471647
bfs_c++_thread,4,16000000,2.628000,271471647
bfs_c++_async,4,16000000,2.648000,271471647
bfs_omp_for,8,16000000,2.208000,271471647
bfs_omp_task,8,16000000,1.624000,271471647
bfs_cilk_for,8,16000000,1.725000,271471647
bfs_cilk_spawn,8,16000000,1.851000,271471647
bfs_c++_thread,8,16000000,1.670000,271471647
bfs_c++_async,8,16000000,1.592000,271471647
bfs_omp_for,16,16000000,1.232000,271471647
bfs_omp_task,16,16000000,1.121000,271471647
bfs_cilk_for,16,16000000,1.703000,271471647
bfs_cilk_spawn,16,16000000,1.336000,271471647
bfs_c++_thread,16,16000000,1.182000,271471647
bfs_c++_async,16,16000000,1.168000,271471647
bfs_omp_for,32,16000000,1.364000,271471647
bfs_omp_task,32,16000000,0.868000,271471647
bfs_cilk_for,32,16000000,1.018000,271471647
bfs_cilk_spawn,32,16000000,1.114000,271541044
bfs_c++_thread,32,16000000,0.888000,271471647
bfs_c++_async,32,16000000,0.921000,271471647
bfs_omp_for,1,16000000,8.431000,271471647
bfs_omp_task,1,16000000,8.461000,271471647
bfs_cilk_for,1,16000000,8.507000,271471647
bfs_cilk_spawn,1,16000000,8.560000,271471647
bfs_c++_thread,1,16000000,8.504000,271471647
bfs_c++_async,1,16000000,8.367000,271471647
bfs_omp_for,2,16000000,4.420000,271471647
bfs_omp_task,2,16000000,4.195000,271471647
bfs_cilk_for,2,16000000,4.314000,271471647
bfs_cilk_spawn,2,16000000,5.170000,271471647
bfs_c++_thread,2,16000000,4.835000,271471647
bfs_c++_async,2,16000000,4.934000,271471647
bfs_omp_for,4,16000000,2.654000,271471647
bfs_omp_task,4,16000000,2.670000,271471647
bfs_cilk_for,4,16000000,2.672000,271471647
bfs_cilk_spawn,4,16000000,2.696000,271471647
bfs_c++_thread,4,16000000,2.704000,271471647
bfs_c++_async,4,16000000,2.649000,271471647
bfs_omp_for,8,16000000,1.667000,271471647
bfs_omp_task,8,16000000,1.585000,271471647
bfs_cilk_for,8,16000000,1.644000,271471647
bfs_cilk_spawn,8,16000000,1.697000,271471647
bfs_c++_thread,8,16000000,1.667000,271471647
bfs_c++_async,8,16000000,1.646000,271471647
bfs_omp_for,16,16000000,1.181000,271471647
bfs_omp_task,16,16000000,1.152000,271471647
bfs_cilk_for,16,16000000,1.760000,271471647
bfs_cilk_spawn,16,16000000,1.298000,271471647
bfs_c++_thread,16,16000000,1.162000,271471647
bfs_c++_async,16,16000000,1.172000,271471647
bfs_omp_for,32,16000000,0.910000,271471647
bfs_omp_task,32,16000000,0.874000,271471647
bfs_cilk_for,32,16000000,1.442000,271471647
bfs_cilk_spawn,32,16000000,1.041000,271471647
bfs_c++_thread,32,16000000,0.914000,271471647
bfs_c++_async,32,16000000,0.905000,271471647
bfs_omp_for,1,16000000,8.479000,271471647
bfs_omp_task,1,16000000,8.344000,271471647
bfs_cilk_for,1,16000000,8.455000,271471647
bfs_cilk_spawn,1,16000000,8.472000,271471647
bfs_c++_thread,1,16000000,8.542000,271471647
bfs_c++_async,1,16000000,8.364000,271471647
bfs_omp_for,2,16000000,4.425000,271471647
bfs_omp_task,2,16000000,4.072000,271471647
bfs_cilk_for,2,16000000,4.219000,271471647
bfs_cilk_spawn,2,16000000,4.534000,271471647
bfs_c++_thread,2,16000000,4.799000,271471647
bfs_c++_async,2,16000000,4.746000,271471647
bfs_omp_for,4,16000000,3.030000,271471647
bfs_omp_task,4,16000000,2.581000,271471647
bfs_cilk_for,4,16000000,2.812000,271471647
bfs_cilk_spawn,4,16000000,2.546000,271471647
bfs_c++_thread,4,16000000,2.652000,271471647
bfs_c++_async,4,16000000,2.815000,271471647
bfs_omp_for,8,16000000,1.645000,271471647
bfs_omp_task,8,16000000,1.678000,271471647
bfs_cilk_for,8,16000000,1.789000,271471647
bfs_cilk_spawn,8,16000000,1.747000,271471647
bfs_c++_thread,8,16000000,1.738000,271471647
bfs_c++_async,8,16000000,1.684000,271471647
bfs_omp_for,16,16000000,1.744000,271471647
bfs_omp_task,16,16000000,1.186000,271471647
bfs_cilk_for,16,16000000,1.232000,271471647
bfs_cilk_spawn,16,16000000,1.226000,271471647
bfs_c++_thread,16,16000000,1.142000,271471647
bfs_c++_async,16,16000000,1.176000,271471647
bfs_omp_for,32,16000000,0.945000,271471647
bfs_omp_task,32,16000000,0.864000,271471647
bfs_cilk_for,32,16000000,1.016000,271471647
bfs_cilk_spawn,32,16000000,1.031000,271935173
bfs_c++_thread,32,16000000,0.909000,271471647
bfs_c++_async,32,16000000,0.913000,271471647
bfs_omp_for,1,16000000,8.663000,271471647
bfs_omp_task,1,16000000,8.639000,271471647
bfs_cilk_for,1,16000000,8.923000,271471647
bfs_cilk_spawn,1,16000000,8.522000,271471647
bfs_c++_thread,1,16000000,8.256000,271471647
bfs_c++_async,1,16000000,8.842000,271471647
bfs_omp_for,2,16000000,4.441000,271471647
bfs_omp_task,2,16000000,4.117000,271471647
bfs_cilk_for,2,16000000,4.332000,271471647
bfs_cilk_spawn,2,16000000,4.656000,271471647
bfs_c++_thread,2,16000000,4.901000,271471647
bfs_c++_async,2,16000000,4.765000,271471647
bfs_omp_for,4,16000000,2.746000,271471647
bfs_omp_task,4,16000000,2.590000,271471647
bfs_cilk_for,4,16000000,2.636000,271471647
bfs_cilk_spawn,4,16000000,2.471000,271471647
bfs_c++_thread,4,16000000,2.704000,271471647
bfs_c++_async,4,16000000,2.787000,271471647
bfs_omp_for,8,16000000,1.651000,271471647
bfs_omp_task,8,16000000,1.607000,271471647
bfs_cilk_for,8,16000000,1.641000,271471647
bfs_cilk_spawn,8,16000000,1.560000,271471647
bfs_c++_thread,8,16000000,1.662000,271471647
bfs_c++_async,8,16000000,1.695000,271471647
bfs_omp_for,16,16000000,1.244000,271471647
bfs_omp_task,16,16000000,1.098000,271471647
bfs_cilk_for,16,16000000,1.697000,271471647
bfs_cilk_spawn,16,16000000,1.372000,271471647
bfs_c++_thread,16,16000000,1.209000,271471647
bfs_c++_async,16,16000000,1.154000,271471647
bfs_omp_for,32,16000000,1.407000,271471647
bfs_omp_task,32,16000000,0.884000,271471647
bfs_cilk_for,32,16000000,1.014000,271471647
bfs_cilk_spawn,32,16000000,1.066000,271471647
bfs_c++_thread,32,16000000,0.959000,271471647
bfs_c++_async,32,16000000,0.917000,271471647
bfs_omp_for,1,16000000,8.938000,271471647
bfs_omp_task,1,16000000,8.047000,271471647
bfs_cilk_for,1,16000000,8.184000,271471647
bfs_cilk_spawn,1,16000000,8.782000,271471647
bfs_c++_thread,1,16000000,8.829000,271471647
bfs_c++_async,1,16000000,8.329000,271471647
bfs_omp_for,2,16000000,4.439000,271471647
bfs_omp_task,2,16000000,4.725000,271471647
bfs_cilk_for,2,16000000,4.844000,271471647
bfs_cilk_spawn,2,16000000,4.448000,271471647
bfs_c++_thread,2,16000000,4.897000,271471647
bfs_c++_async,2,16000000,4.831000,271471647
bfs_omp_for,4,16000000,2.645000,271471647
bfs_omp_task,4,16000000,2.637000,271471647
bfs_cilk_for,4,16000000,2.564000,271471647
bfs_cilk_spawn,4,16000000,2.687000,271471647
bfs_c++_thread,4,16000000,2.655000,271471647
bfs_c++_async,4,16000000,2.591000,271471647
bfs_omp_for,8,16000000,2.137000,271471647
bfs_omp_task,8,16000000,1.652000,271471647
bfs_cilk_for,8,16000000,2.139000,271471647
bfs_cilk_spawn,8,16000000,1.450000,271471647
bfs_c++_thread,8,16000000,1.698000,271471647
bfs_c++_async,8,16000000,1.714000,271471647
bfs_omp_for,16,16000000,1.670000,271471647
bfs_omp_task,16,16000000,1.137000,271471647
bfs_cilk_for,16,16000000,1.199000,271471647
bfs_cilk_spawn,16,16000000,1.316000,271471647
bfs_c++_thread,16,16000000,1.188000,271471647
bfs_c++_async,16,16000000,1.154000,271471647
bfs_omp_for,32,16000000,0.921000,271471647
bfs_omp_task,32,16000000,0.951000,271471647
bfs_cilk_for,32,16000000,1.472000,271471647
bfs_cilk_spawn,32,16000000,1.217000,271597963
bfs_c++_thread,32,16000000,0.921000,271471647
bfs_c++_async,32,16000000,0.919000,271471647
bfs_omp_for,1,16000000,8.613000,271471647
bfs_omp_task,1,16000000,8.157000,271471647
bfs_cilk_for,1,16000000,9.069000,271471647
bfs_cilk_spawn,1,16000000,8.550000,271471647
bfs_c++_thread,1,16000000,8.654000,271471647
bfs_c++_async,1,16000000,8.841000,271471647
bfs_omp_for,2,16000000,4.228000,271471647
bfs_omp_task,2,16000000,4.274000,271471647
bfs_cilk_for,2,16000000,4.274000,271471647
bfs_cilk_spawn,2,16000000,4.683000,271471647
bfs_c++_thread,2,16000000,5.043000,271471647
bfs_c++_async,2,16000000,4.819000,271471647
bfs_omp_for,4,16000000,2.592000,271471647
bfs_omp_task,4,16000000,2.556000,271471647
bfs_cilk_for,4,16000000,2.548000,271471647
bfs_cilk_spawn,4,16000000,2.873000,271471647
bfs_c++_thread,4,16000000,2.647000,271471647
bfs_c++_async,4,16000000,2.695000,271471647
bfs_omp_for,8,16000000,1.606000,271471647
bfs_omp_task,8,16000000,1.559000,271471647
bfs_cilk_for,8,16000000,1.585000,271471647
bfs_cilk_spawn,8,16000000,1.726000,271471647
bfs_c++_thread,8,16000000,1.661000,271471647
bfs_c++_async,8,16000000,1.646000,271471647
bfs_omp_for,16,16000000,1.191000,271471647
bfs_omp_task,16,16000000,1.142000,271471647
bfs_cilk_for,16,16000000,1.176000,271471647
bfs_cilk_spawn,16,16000000,1.163000,271471647
bfs_c++_thread,16,16000000,1.156000,271471647
bfs_c++_async,16,16000000,1.156000,271471647
bfs_omp_for,32,16000000,1.427000,271471647
bfs_omp_task,32,16000000,0.887000,271471647
bfs_cilk_for,32,16000000,1.010000,271471647
bfs_cilk_spawn,32,16000000,1.097000,271471647
bfs_c++_thread,32,16000000,0.904000,271471647
bfs_c++_async,32,16000000,0.927000,271471647
bfs_omp_for,1,16000000,8.727000,271471647
bfs_omp_task,1,16000000,8.267000,271471647
bfs_cilk_for,1,16000000,9.048000,271471647
bfs_cilk_spawn,1,16000000,8.623000,271471647
bfs_c++_thread,1,16000000,8.260000,271471647
bfs_c++_async,1,16000000,8.785000,271471647
bfs_omp_for,2,16000000,4.327000,271471647
bfs_omp_task,2,16000000,4.784000,271471647
bfs_cilk_for,2,16000000,4.149000,271471647
bfs_cilk_spawn,2,16000000,4.445000,271471647
bfs_c++_thread,2,16000000,4.792000,271471647
bfs_c++_async,2,16000000,5.027000,271471647
bfs_omp_for,4,16000000,2.658000,271471647
bfs_omp_task,4,16000000,2.548000,271471647
bfs_cilk_for,4,16000000,2.551000,271471647
bfs_cilk_spawn,4,16000000,2.575000,271471647
bfs_c++_thread,4,16000000,2.719000,271471647
bfs_c++_async,4,16000000,2.772000,271471647
bfs_omp_for,8,16000000,2.062000,271471647
bfs_omp_task,8,16000000,1.664000,271471647
bfs_cilk_for,8,16000000,1.680000,271471647
bfs_cilk_spawn,8,16000000,1.364000,271471647
bfs_c++_thread,8,16000000,1.664000,271471647
bfs_c++_async,8,16000000,1.707000,271471647
bfs_omp_for,16,16000000,1.165000,271471647
bfs_omp_task,16,16000000,1.170000,271471647
bfs_cilk_for,16,16000000,1.180000,271471647
bfs_cilk_spawn,16,16000000,1.304000,271471647
bfs_c++_thread,16,16000000,1.166000,271471647
bfs_c++_async,16,16000000,1.189000,271471647
bfs_omp_for,32,16000000,0.892000,271471647
bfs_omp_task,32,16000000,0.969000,271471647
bfs_cilk_for,32,16000000,0.971000,271471647
bfs_cilk_spawn,32,16000000,1.140000,271471647
bfs_c++_thread,32,16000000,0.896000,271471647
bfs_c++_async,32,16000000,0.930000,271471647
bfs_omp_for,1,16000000,8.327000,271471647
bfs_omp_task,1,16000000,8.025000,271471647
bfs_cilk_for,1,16000000,8.534000,271471647
bfs_cilk_spawn,1,16000000,8.868000,271471647
bfs_c++_thread,1,16000000,8.578000,271471647
bfs_c++_async,1,16000000,8.267000,271471647
bfs_omp_for,2,16000000,4.837000,271471647
bfs_omp_task,2,16000000,4.599000,271471647
bfs_cilk_for,2,16000000,4.586000,271471647
bfs_cilk_spawn,2,16000000,4.314000,271471647
bfs_c++_thread,2,16000000,4.721000,271471647
bfs_c++_async,2,16000000,4.640000,271471647
bfs_omp_for,4,16000000,3.183000,271471647
bfs_omp_task,4,16000000,2.601000,271471647
bfs_cilk_for,4,16000000,2.702000,271471647
bfs_cilk_spawn,4,16000000,2.758000,271471647
bfs_c++_thread,4,16000000,2.663000,271471647
bfs_c++_async,4,16000000,2.593000,271471647
bfs_omp_for,8,16000000,2.300000,271471647
bfs_omp_task,8,16000000,1.583000,271471647
bfs_cilk_for,8,16000000,1.611000,271471647
bfs_cilk_spawn,8,16000000,1.912000,271471647
bfs_c++_thread,8,16000000,1.693000,271471647
bfs_c++_async,8,16000000,1.679000,271471647
bfs_omp_for,16,16000000,1.794000,271471647
bfs_omp_task,16,16000000,1.130000,271471647
bfs_cilk_for,16,16000000,1.644000,271471647
bfs_cilk_spawn,16,16000000,1.254000,271471647
bfs_c++_thread,16,16000000,1.146000,271471647
bfs_c++_async,16,16000000,1.180000,271471647
bfs_omp_for,32,16000000,1.043000,271471647
bfs_omp_task,32,16000000,0.885000,271471647
bfs_cilk_for,32,16000000,1.465000,271471647
bfs_cilk_spawn,32,16000000,1.173000,271533552
bfs_c++_thread,32,16000000,0.889000,271471647
bfs_c++_async,32,16000000,0.954000,271471647
bfs_omp_for,1,16000000,8.716000,271471647
bfs_omp_task,1,16000000,8.279000,271471647
bfs_cilk_for,1,16000000,8.749000,271471647
bfs_cilk_spawn,1,16000000,8.670000,271471647
bfs_c++_thread,1,16000000,8.514000,271471647
bfs_c++_async,1,16000000,9.075000,271471647
bfs_omp_for,2,16000000,4.417000,271471647
bfs_omp_task,2,16000000,4.082000,271471647
bfs_cilk_for,2,16000000,4.426000,271471647
bfs_cilk_spawn,2,16000000,4.890000,271471647
bfs_c++_thread,2,16000000,4.415000,271471647
bfs_c++_async,2,16000000,5.045000,271471647
bfs_omp_for,4,16000000,2.933000,271471647
bfs_omp_task,4,16000000,2.617000,271471647
bfs_cilk_for,4,16000000,2.737000,271471647
bfs_cilk_spawn,4,16000000,2.920000,271471647
bfs_c++_thread,4,16000000,2.824000,271471647
bfs_c++_async,4,16000000,2.722000,271471647
bfs_omp_for,8,16000000,1.684000,271471647
bfs_omp_task,8,16000000,1.653000,271471647
bfs_cilk_for,8,16000000,2.142000,271471647
bfs_cilk_spawn,8,16000000,1.648000,271471647
bfs_c++_thread,8,16000000,1.659000,271471647
bfs_c++_async,8,16000000,1.737000,271471647
bfs_omp_for,16,16000000,1.235000,271471647
bfs_omp_task,16,16000000,1.156000,271471647
bfs_cilk_for,16,16000000,1.226000,271471647
bfs_cilk_spawn,16,16000000,1.217000,271471647
bfs_c++_thread,16,16000000,1.157000,271471647
bfs_c++_async,16,16000000,1.150000,271471647
bfs_omp_for,32,16000000,0.921000,271471647
bfs_omp_task,32,16000000,0.917000,271471647
bfs_cilk_for,32,16000000,1.002000,271471647
bfs_cilk_spawn,32,16000000,1.098000,271471647
bfs_c++_thread,32,16000000,0.933000,271471647
bfs_c++_async,32,16000000,0.923000,271471647
bfs_omp_for,1,16000000,8.644000,271471647
bfs_omp_task,1,16000000,8.371000,271471647
bfs_cilk_for,1,16000000,8.710000,271471647
bfs_cilk_spawn,1,16000000,8.705000,271471647
bfs_c++_thread,1,16000000,8.275000,271471647
bfs_c++_async,1,16000000,9.028000,271471647
bfs_omp_for,2,16000000,4.256000,271471647
bfs_omp_task,2,16000000,4.720000,271471647
bfs_cilk_for,2,16000000,4.312000,271471647
bfs_cilk_spawn,2,16000000,4.393000,271471647
bfs_c++_thread,2,16000000,4.802000,271471647
bfs_c++_async,2,16000000,4.872000,271471647
bfs_omp_for,4,16000000,2.866000,271471647
bfs_omp_task,4,16000000,2.638000,271471647
bfs_cilk_for,4,16000000,2.618000,271471647
bfs_cilk_spawn,4,16000000,2.593000,271471647
bfs_c++_thread,4,16000000,2.642000,271471647
bfs_c++_async,4,16000000,2.627000,271471647
bfs_omp_for,8,16000000,1.706000,271471647
bfs_omp_task,8,16000000,1.803000,271471647
bfs_cilk_for,8,16000000,1.709000,271471647
bfs_cilk_spawn,8,16000000,1.801000,271471647
bfs_c++_thread,8,16000000,1.702000,271471647
bfs_c++_async,8,16000000,1.792000,271471647
bfs_omp_for,16,16000000,1.149000,271471647
bfs_omp_task,16,16000000,1.141000,271471647
bfs_cilk_for,16,16000000,1.185000,271471647
bfs_cilk_spawn,16,16000000,1.174000,271471647
bfs_c++_thread,16,16000000,1.191000,271471647
bfs_c++_async,16,16000000,1.186000,271471647
bfs_omp_for,32,16000000,0.949000,271471647
bfs_omp_task,32,16000000,0.950000,271471647
bfs_cilk_for,32,16000000,1.441000,271471647
bfs_cilk_spawn,32,16000000,1.227000,271471647
bfs_c++_thread,32,16000000,0.921000,271471647
bfs_c++_async,32,16000000,0.903000,271471647
bfs_omp_for,1,16000000,8.513000,271471647
bfs_omp_task,1,16000000,8.561000,271471647
bfs_cilk_for,1,16000000,9.380000,271471647
bfs_cilk_spawn,1,16000000,8.584000,271471647
bfs_c++_thread,1,16000000,8.262000,271471647
bfs_c++_async,1,16000000,8.571000,271471647
bfs_omp_for,2,16000000,4.431000,271471647
bfs_omp_task,2,16000000,4.225000,271471647
bfs_cilk_for,2,16000000,4.330000,271471647
bfs_cilk_spawn,2,16000000,4.637000,271471647
bfs_c++_thread,2,16000000,4.902000,271471647
bfs_c++_async,2,16000000,5.008000,271471647
bfs_omp_for,4,16000000,2.742000,271471647
bfs_omp_task,4,16000000,2.556000,271471647
bfs_cilk_for,4,16000000,2.569000,271471647
bfs_cilk_spawn,4,16000000,2.472000,271471647
bfs_c++_thread,4,16000000,2.801000,271471647
bfs_c++_async,4,16000000,2.829000,271471647
bfs_omp_for,8,16000000,2.032000,271471647
bfs_omp_task,8,16000000,1.637000,271471647
bfs_cilk_for,8,16000000,1.662000,271471647
bfs_cilk_spawn,8,16000000,1.694000,271471647
bfs_c++_thread,8,16000000,1.698000,271471647
bfs_c++_async,8,16000000,1.670000,271471647
bfs_omp_for,16,16000000,1.168000,271471647
bfs_omp_task,16,16000000,1.118000,271471647
bfs_cilk_for,16,16000000,1.198000,271471647
bfs_cilk_spawn,16,16000000,1.384000,271471647
bfs_c++_thread,16,16000000,1.201000,271471647
bfs_c++_async,16,16000000,1.156000,271471647
bfs_omp_for,32,16000000,0.994000,271471647
bfs_omp_task,32,16000000,0.948000,271471647
bfs_cilk_for,32,16000000,1.453000,271471647
bfs_cilk_spawn,32,16000000,1.054000,271471647
bfs_c++_thread,32,16000000,0.919000,271471647
bfs_c++_async,32,16000000,0.900000,271471647
bfs_omp_for,1,16000000,8.393000,271471647
bfs_omp_task,1,16000000,8.413000,271471647
bfs_cilk_for,1,16000000,8.986000,271471647
bfs_cilk_spawn,1,16000000,8.423000,271471647
bfs_c++_thread,1,16000000,8.861000,271471647
bfs_c++_async,1,16000000,8.514000,271471647
bfs_omp_for,2,16000000,4.269000,271471647
bfs_omp_task,2,16000000,4.115000,271471647
bfs_cilk_for,2,16000000,4.273000,271471647
bfs_cilk_spawn,2,16000000,4.400000,271471647
bfs_c++_thread,2,16000000,5.064000,271471647
bfs_c++_async,2,16000000,4.896000,271471647
bfs_omp_for,4,16000000,2.688000,271471647
bfs_omp_task,4,16000000,2.587000,271471647
bfs_cilk_for,4,16000000,2.944000,271471647
bfs_cilk_spawn,4,16000000,2.662000,271471647
bfs_c++_thread,4,16000000,2.694000,271471647
bfs_c++_async,4,16000000,2.790000,271471647
bfs_omp_for,8,16000000,2.081000,271471647
bfs_omp_task,8,16000000,1.680000,271471647
bfs_cilk_for,8,16000000,1.642000,271471647
bfs_cilk_spawn,8,16000000,1.632000,271471647
bfs_c++_thread,8,16000000,1.778000,271471647
bfs_c++_async,8,16000000,1.693000,271471647
bfs_omp_for,16,16000000,1.127000,271471647
bfs_omp_task,16,16000000,1.200000,271471647
bfs_cilk_for,16,16000000,1.192000,271471647
bfs_cilk_spawn,16,16000000,1.460000,271471647
bfs_c++_thread,16,16000000,1.158000,271471647
bfs_c++_async,16,16000000,1.154000,271471647
bfs_omp_for,32,16000000,0.984000,271471647
bfs_omp_task,32,16000000,0.880000,271471647
bfs_cilk_for,32,16000000,0.961000,271471647
bfs_cilk_spawn,32,16000000,1.112000,271751524
bfs_c++_thread,32,16000000,0.948000,271471647
bfs_c++_async,32,16000000,0.990000,271471647
bfs_omp_for,1,16000000,8.463000,271471647
bfs_omp_task,1,16000000,8.388000,271471647
bfs_cilk_for,1,16000000,8.393000,271471647
bfs_cilk_spawn,1,16000000,8.424000,271471647
bfs_c++_thread,1,16000000,8.376000,271471647
bfs_c++_async,1,16000000,9.231000,271471647
bfs_omp_for,2,16000000,4.409000,271471647
bfs_omp_task,2,16000000,4.845000,271471647
bfs_cilk_for,2,16000000,4.335000,271471647
bfs_cilk_spawn,2,16000000,4.569000,271471647
bfs_c++_thread,2,16000000,4.916000,271471647
bfs_c++_async,2,16000000,4.835000,271471647
bfs_omp_for,4,16000000,2.296000,271471647
bfs_omp_task,4,16000000,2.889000,271471647
bfs_cilk_for,4,16000000,2.603000,271471647
bfs_cilk_spawn,4,16000000,2.851000,271471647
bfs_c++_thread,4,16000000,2.689000,271471647
bfs_c++_async,4,16000000,2.574000,271471647
bfs_omp_for,8,16000000,1.619000,271471647
bfs_omp_task,8,16000000,1.731000,271471647
bfs_cilk_for,8,16000000,1.301000,271471647
bfs_cilk_spawn,8,16000000,1.696000,271471647
bfs_c++_thread,8,16000000,1.605000,271471647
bfs_c++_async,8,16000000,1.631000,271471647
bfs_omp_for,16,16000000,1.183000,271471647
bfs_omp_task,16,16000000,1.202000,271471647
bfs_cilk_for,16,16000000,1.186000,271471647
bfs_cilk_spawn,16,16000000,1.201000,271471647
bfs_c++_thread,16,16000000,1.215000,271471647
bfs_c++_async,16,16000000,1.165000,271471647
bfs_omp_for,32,16000000,1.436000,271471647
bfs_omp_task,32,16000000,0.942000,271471647
bfs_cilk_for,32,16000000,0.962000,271471647
bfs_cilk_spawn,32,16000000,1.000000,271471647
bfs_c++_thread,32,16000000,0.903000,271471647
bfs_c++_async,32,16000000,0.897000,271471647
