bfs_cilk_spawn,8,16000000,1.79195
bfs_omp_for,16,16000000,1.2637
bfs_omp_task,8,16000000,1.6039
bfs_omp_for,4,16000000,2.7562
bfs_cilk_spawn,32,16000000,1.0464
bfs_cilk_for,8,16000000,1.7837
bfs_cilk_for,32,16000000,1.1201
bfs_cilk_spawn,4,16000000,2.6861
bfs_c++_async,1,16000000,7.90595
bfs_cilk_for,4,16000000,2.5732
bfs_c++_thread,2,16000000,4.5978
bfs_c++_async,32,16000000,0.9055
bfs_omp_task,2,16000000,4.11795
bfs_c++_async,4,16000000,2.58535
bfs_cilk_spawn,2,16000000,4.49925
bfs_omp_for,2,16000000,4.3034
bfs_c++_thread,1,16000000,7.8725
bfs_cilk_for,2,16000000,4.19745
bfs_c++_async,16,16000000,1.1688
bfs_cilk_spawn,16,16000000,1.26085
bfs_c++_thread,32,16000000,0.921
bfs_c++_async,8,16000000,1.6814
bfs_cilk_for,16,16000000,1.4928
bfs_c++_thread,4,16000000,2.61205
bfs_omp_for,32,16000000,1.0629
bfs_omp_task,1,16000000,7.8666
bfs_c++_thread,16,16000000,1.15955
bfs_omp_task,32,16000000,0.89655
bfs_c++_thread,8,16000000,1.67765
bfs_omp_task,16,16000000,1.14925
bfs_c++_async,2,16000000,4.59845
bfs_cilk_for,1,16000000,8.1067
bfs_cilk_spawn,1,16000000,8.2269
bfs_omp_for,1,16000000,8.09405
bfs_omp_task,4,16000000,2.51215
bfs_omp_for,8,16000000,1.76075
