bfs_cilk_spawn,8,16000000,1.7091
bfs_omp_for,16,16000000,1.44325
bfs_omp_task,8,16000000,1.66185
bfs_omp_for,4,16000000,2.8615
bfs_cilk_spawn,32,16000000,1.08575
bfs_cilk_for,8,16000000,1.6688
bfs_cilk_for,32,16000000,1.0666
bfs_cilk_spawn,4,16000000,2.60045
bfs_c++_async,1,16000000,6.77065
bfs_cilk_for,4,16000000,2.42535
bfs_c++_thread,2,16000000,4.44225
bfs_c++_async,32,16000000,1.00225
bfs_omp_task,2,16000000,3.70205
bfs_c++_async,4,16000000,2.62115
bfs_cilk_spawn,2,16000000,3.99805
bfs_omp_for,2,16000000,3.8818
bfs_c++_thread,1,16000000,6.64925
bfs_cilk_for,2,16000000,3.8018
bfs_c++_async,16,16000000,1.239
bfs_cilk_spawn,16,16000000,1.3624
bfs_c++_thread,32,16000000,0.9864
bfs_c++_async,8,16000000,1.7139
bfs_cilk_for,16,16000000,1.2774
bfs_c++_thread,4,16000000,2.63455
bfs_omp_for,32,16000000,1.1771
bfs_omp_task,1,16000000,6.1884
bfs_c++_thread,16,16000000,1.23125
bfs_omp_task,32,16000000,0.97645
bfs_c++_thread,8,16000000,1.7281
bfs_omp_task,16,16000000,1.2075
bfs_c++_async,2,16000000,4.54975
bfs_cilk_for,1,16000000,6.58375
bfs_cilk_spawn,1,16000000,6.87025
bfs_omp_for,1,16000000,6.63515
bfs_omp_task,4,16000000,2.59465
bfs_omp_for,8,16000000,1.8439
